Add cell to df with lat/long — add_raster_cell • envRaster
…
  # add just cell to sample
  add_raster_cell(base
                  , sample
                  , x = "X"
                  , y = "Y"
                  )
#> Joining with `by = join_by(old_X, old_Y)`
#> # A tibble: 102 × 2
#>      cell attribute
#>     <dbl> <chr>    
#>  1     NA c        
#>  2     NA h        
#>  3 100976 d        
#>  4 117653 i        
#>  5  97215 a        
#>  6  73944 g        
#>  7  90150 d        
#>  8  74195 h        
#>  9  90814 j        
#> 10  58729 h        
#> # ℹ 92 more rows

  # add cell and cell centroids to sample
  add_raster_cell(base
                  , sample
                  , add_xy = TRUE
                  , x = "X"
                  , y = "Y"
                  )
#> Joining with `by = join_by(old_X, old_Y)`
#> # A tibble: 102 × 4
#>      cell attribute cell_X cell_Y
#>     <dbl> <chr>      <dbl>  <dbl>
#>  1     NA c            NA    NA  
#>  2     NA h            NA    NA  
#>  3 100976 d           140.  -34.6
#>  4 117653 i           140.  -34.6
#>  5  97215 a           140.  -34.6
#>  6  73944 g           140.  -34.5
#>  7  90150 d           140.  -34.5
#>  8  74195 h           140.  -34.5
#>  9  90814 j           140.  -34.5
#> 10  58729 h           140.  -34.5
#> # ℹ 92 more rows

  # add cell, cell centroids and original 'x' and 'y' to sample
  add_raster_cell(base
                  , sample
                  , add_xy = TRUE
                  , return_old_xy = TRUE
                  , x = "X"
                  , y = "Y"
                  )
#> Joining with `by = join_by(old_X, old_Y)`
#> # A tibble: 102 × 6
#>      cell old_X old_Y attribute cell_X cell_Y
#>     <dbl> <dbl> <dbl> <chr>      <dbl>  <dbl>
#>  1     NA   NA   NA   c            NA    NA  
#>  2     NA   NA   NA   h            NA    NA  
#>  3 100976  140. -34.6 d           140.  -34.6
#>  4 117653  140. -34.6 i           140.  -34.6
#>  5  97215  140. -34.6 a           140.  -34.6
#>  6  73944  140. -34.5 g           140.  -34.5
#>  7  90150  140. -34.5 d           140.  -34.5
#>  8  74195  140. -34.5 h           140.  -34.5
#>  9  90814  140. -34.5 j           140.  -34.5
#> 10  58729  140. -34.5 h           140.  -34.5
#> # ℹ 92 more rows

  # add cell, cell centroids, cell values and original 'x' and 'y' to sample
  add_raster_cell(base
                  , sample
                  , add_xy = TRUE
                  , return_old_xy = TRUE
                  , add_val = TRUE
                  , x = "X"
                  , y = "Y"
                  )
#> Joining with `by = join_by(old_X, old_Y)`
#> # A tibble: 102 × 7
#>      cell old_X old_Y attribute cell_X cell_Y  base
#>     <dbl> <dbl> <dbl> <chr>      <dbl>  <dbl> <int>
#>  1     NA   NA   NA   c            NA    NA      NA
#>  2     NA   NA   NA   h            NA    NA      NA
#>  3 100976  140. -34.6 d           140.  -34.6     1
#>  4 117653  140. -34.6 i           140.  -34.6     1
#>  5  97215  140. -34.6 a           140.  -34.6     1
#>  6  73944  140. -34.5 g           140.  -34.5     1
#>  7  90150  140. -34.5 d           140.  -34.5     1
#>  8  74195  140. -34.5 h           140.  -34.5     1
#>  9  90814  140. -34.5 j           140.  -34.5     1
#> 10  58729  140. -34.5 h           140.  -34.5     1
#> # ℹ 92 more rows
…
